Pradeep Sahoo Midterm
…
## [1] 8945

        #summarise(tx_sales,max = max(sales))

What kind of relationship do you think exists between the number of listings and the number of sales? Check your assumption and show your work.

Listing is always greater than Sales.

What proportion of sales is missing for each city?

tx_sales_city <- group_by(txhousing,city)
tx_sales_city_notna <- filter(tx_sales_city,  sales =='NA')
          summarise(tx_sales_city,count=n())

## # A tibble: 46 x 2
##    city                  count
##    <chr>                 <int>
##  1 Abilene                 187
##  2 Amarillo                187
##  3 Arlington               187
##  4 Austin                  187
##  5 Bay Area                187
##  6 Beaumont                187
##  7 Brazoria County         187
##  8 Brownsville             187
##  9 Bryan-College Station   187
## 10 Collin County           187
## # ... with 36 more rows
…
